Added Pin To Net: NetName=nc1 Pin=IC14-5
Added Net: Name=nc1
Added Pin To Net: NetName=nc2 Pin=IC14-6
Added Net: Name=nc2
Added Pin To Net: NetName=nc3 Pin=IC14-9
Added Net: Name=nc3
Added Pin To Net: NetName=nc4 Pin=IC14-13
Added Net: Name=nc4
Added Pin To Net: NetName=nc5 Pin=IC14-15
Added Net: Name=nc5
Added Member To Class: ClassName=bat0_egible Member=Wire nc1
Added Member To Class: ClassName=bat0_egible Member=Wire nc2
Added Member To Class: ClassName=bat0_egible Member=Wire nc3
Added Member To Class: ClassName=bat0_egible Member=Wire nc4
Added Member To Class: ClassName=bat0_egible Member=Wire nc5
