Change Physical Footprint: Designator=Battery TAP Old Footprint=M80-5402005 New Footprint=M80-5402005
Change Physical Footprint: Designator=BMS Old Footprint=64-lqfp New Footprint=64-lqfp
Change Physical Footprint: Designator=C1 Old Footprint=CAP_0603 New Footprint=CAP_0603
Change Physical Footprint: Designator=C2 Old Footprint=CAP_0603 New Footprint=CAP_0603
Change Physical Footprint: Designator=C3 Old Footprint=CAP_0603 New Footprint=CAP_0603
Change Physical Footprint: Designator=C4 Old Footprint=CAP_0603 New Footprint=CAP_0603
Change Physical Footprint: Designator=C5 Old Footprint=CAP_1206 New Footprint=CAP_1206
Change Physical Footprint: Designator=C6 Old Footprint=CAP_1206 New Footprint=CAP_1206
Change Physical Footprint: Designator=C7 Old Footprint=CAP_1206 New Footprint=CAP_1206
Change Physical Footprint: Designator=C8 Old Footprint=CAP_0805 New Footprint=CAP_0805
Change Physical Footprint: Designator=C9 Old Footprint=CAP_1210 New Footprint=CAP_1210
Change Physical Footprint: Designator=C10 Old Footprint=CAP_0805 New Footprint=CAP_0805
Change Physical Footprint: Designator=C11 Old Footprint=CAP_0603 New Footprint=CAP_0603
Change Physical Footprint: Designator=C12 Old Footprint=CAP_0603 New Footprint=CAP_0603
Change Physical Footprint: Designator=C13 Old Footprint=CAP_0603 New Footprint=CAP_0603
Change Physical Footprint: Designator=C14 Old Footprint=CAP_0603 New Footprint=CAP_0603
Change Physical Footprint: Designator=C15 Old Footprint=CAP_0603 New Footprint=CAP_0603
Change Physical Footprint: Designator=C16 Old Footprint=CAP_0603 New Footprint=CAP_0603
Change Physical Footprint: Designator=C17 Old Footprint=CAP_1206 New Footprint=CAP_1206
Change Physical Footprint: Designator=C18 Old Footprint=CAP_0603 New Footprint=CAP_0603
Change Physical Footprint: Designator=C19 Old Footprint=CAP_0603 New Footprint=CAP_0603
Change Physical Footprint: Designator=C20 Old Footprint=CAP_0603 New Footprint=CAP_0603
Change Physical Footprint: Designator=C21 Old Footprint=CAP_0603 New Footprint=CAP_0603
Change Physical Footprint: Designator=C22 Old Footprint=CAP_0603 New Footprint=CAP_0603
Change Physical Footprint: Designator=C23 Old Footprint=CAP_0603 New Footprint=CAP_0603
Change Physical Footprint: Designator=C24 Old Footprint=CAP_0603 New Footprint=CAP_0603
Change Physical Footprint: Designator=C25 Old Footprint=CAP_0603 New Footprint=CAP_0603
Change Physical Footprint: Designator=C26 Old Footprint=CAP_0603 New Footprint=CAP_0603
Change Physical Footprint: Designator=C27 Old Footprint=CAP_0603 New Footprint=CAP_0603
Change Physical Footprint: Designator=C28 Old Footprint=CAP_0603 New Footprint=CAP_0603
Change Physical Footprint: Designator=C29 Old Footprint=CAP_0603 New Footprint=CAP_0603
Change Physical Footprint: Designator=C30 Old Footprint=CAP_0603 New Footprint=CAP_0603
Change Physical Footprint: Designator=C31 Old Footprint=CAP_0603 New Footprint=CAP_0603
Change Physical Footprint: Designator=CMC1 Old Footprint=HM2113ZNL New Footprint=HM2113ZNL
Change Physical Footprint: Designator=CMC2 Old Footprint=HM2113ZNL New Footprint=HM2113ZNL
Change Physical Footprint: Designator=D1 Old Footprint=DO-214AC (SMA) New Footprint=DO-214AC (SMA)
Change Physical Footprint: Designator=DH1 Old Footprint=M4_Distancer_Hole New Footprint=M4_Distancer_Hole
Change Physical Footprint: Designator=DH2 Old Footprint=M4_Distancer_Hole New Footprint=M4_Distancer_Hole
Change Physical Footprint: Designator=DH3 Old Footprint=M4_Distancer_Hole New Footprint=M4_Distancer_Hole
Change Physical Footprint: Designator=DH4 Old Footprint=M4_Distancer_Hole New Footprint=M4_Distancer_Hole
Change Physical Footprint: Designator=DTEN Old Footprint=JUMPER_SMD_0R_0603 New Footprint=JUMPER_SMD_0R_0603
Change Physical Footprint: Designator=F1 Old Footprint=FUSE_1206 New Footprint=FUSE_1206
Change Physical Footprint: Designator=F2 Old Footprint=FUSE_1206 New Footprint=FUSE_1206
Change Physical Footprint: Designator=F3 Old Footprint=FUSE_1206 New Footprint=FUSE_1206
Change Physical Footprint: Designator=F4 Old Footprint=FUSE_1206 New Footprint=FUSE_1206
Change Physical Footprint: Designator=F5 Old Footprint=FUSE_1206 New Footprint=FUSE_1206
Change Physical Footprint: Designator=F6 Old Footprint=FUSE_1206 New Footprint=FUSE_1206
Change Physical Footprint: Designator=F7 Old Footprint=FUSE_1206 New Footprint=FUSE_1206
Change Physical Footprint: Designator=F8 Old Footprint=FUSE_1206 New Footprint=FUSE_1206
Change Physical Footprint: Designator=F10 Old Footprint=FUSE_1206 New Footprint=FUSE_1206
Change Physical Footprint: Designator=F11 Old Footprint=FUSE_1206 New Footprint=FUSE_1206
Change Physical Footprint: Designator=F12 Old Footprint=FUSE_1206 New Footprint=FUSE_1206
Change Physical Footprint: Designator=F13 Old Footprint=FUSE_1206 New Footprint=FUSE_1206
Change Physical Footprint: Designator=F14 Old Footprint=FUSE_1206 New Footprint=FUSE_1206
Change Physical Footprint: Designator=F15 Old Footprint=FUSE_1206 New Footprint=FUSE_1206
Change Physical Footprint: Designator=F16 Old Footprint=FUSE_1206 New Footprint=FUSE_1206
Change Physical Footprint: Designator=F17 Old Footprint=FUSE_1206 New Footprint=FUSE_1206
Change Physical Footprint: Designator=F18 Old Footprint=FUSE_1206 New Footprint=FUSE_1206
Change Physical Footprint: Designator=FID1 Old Footprint=FIDUCIAL New Footprint=FIDUCIAL
Change Physical Footprint: Designator=FID2 Old Footprint=FIDUCIAL New Footprint=FIDUCIAL
Change Physical Footprint: Designator=FID3 Old Footprint=FIDUCIAL New Footprint=FIDUCIAL
Change Physical Footprint: Designator=FID4 Old Footprint=FIDUCIAL New Footprint=FIDUCIAL
Change Physical Footprint: Designator=FID5 Old Footprint=FIDUCIAL New Footprint=FIDUCIAL
Change Physical Footprint: Designator=FID6 Old Footprint=FIDUCIAL New Footprint=FIDUCIAL
Change Physical Footprint: Designator=IC1 Old Footprint=16-SOIC New Footprint=16-SOIC
Change Physical Footprint: Designator=IC2 Old Footprint=16-SOIC New Footprint=16-SOIC
Change Physical Footprint: Designator=IC3 Old Footprint=16-SOIC New Footprint=16-SOIC
Change Physical Footprint: Designator=IC4 Old Footprint=16-SOIC New Footprint=16-SOIC
Change Physical Footprint: Designator=IC14 Old Footprint=LTC8631 New Footprint=LTC8631
Change Physical Footprint: Designator=IND1 Old Footprint=IND_6.3X6.3 New Footprint=IND_6.3X6.3
Change Physical Footprint: Designator=IP/MA Old Footprint=M80-8420242 New Footprint=M80-8420242
Change Physical Footprint: Designator=IP/MB Old Footprint=M80-8510442 New Footprint=M80-8510442
Change Physical Footprint: Designator=ISOMD Old Footprint=JUMPER_SMD_0R_0603 New Footprint=JUMPER_SMD_0R_0603
Change Physical Footprint: Designator=L1 Old Footprint=LED_1206 New Footprint=LED_1206
Change Physical Footprint: Designator=L2 Old Footprint=LED_1206 New Footprint=LED_1206
Change Physical Footprint: Designator=L3 Old Footprint=LED_1206 New Footprint=LED_1206
Change Physical Footprint: Designator=L4 Old Footprint=LED_1206 New Footprint=LED_1206
Change Physical Footprint: Designator=L5 Old Footprint=LED_1206 New Footprint=LED_1206
Change Physical Footprint: Designator=L6 Old Footprint=LED_1206 New Footprint=LED_1206
Change Physical Footprint: Designator=L7 Old Footprint=LED_1206 New Footprint=LED_1206
Change Physical Footprint: Designator=L8 Old Footprint=LED_1206 New Footprint=LED_1206
Change Physical Footprint: Designator=L9 Old Footprint=LED_1206 New Footprint=LED_1206
Change Physical Footprint: Designator=L10 Old Footprint=LED_1206 New Footprint=LED_1206
Change Physical Footprint: Designator=L11 Old Footprint=LED_1206 New Footprint=LED_1206
Change Physical Footprint: Designator=L12 Old Footprint=LED_1206 New Footprint=LED_1206
Change Physical Footprint: Designator=L13 Old Footprint=LED_1206 New Footprint=LED_1206
Change Physical Footprint: Designator=L14 Old Footprint=LED_1206 New Footprint=LED_1206
Change Physical Footprint: Designator=L15 Old Footprint=LED_1206 New Footprint=LED_1206
Change Physical Footprint: Designator=L16 Old Footprint=LED_1206 New Footprint=LED_1206
Change Physical Footprint: Designator=Q1 Old Footprint=SOT-23 New Footprint=SOT-23
Change Physical Footprint: Designator=Q2 Old Footprint=SOT-23 New Footprint=SOT-23
Change Physical Footprint: Designator=Q3 Old Footprint=SOT-23 New Footprint=SOT-23
Change Physical Footprint: Designator=Q4 Old Footprint=SOT-23 New Footprint=SOT-23
Change Physical Footprint: Designator=Q5 Old Footprint=SOT-23 New Footprint=SOT-23
Change Physical Footprint: Designator=Q6 Old Footprint=SOT-23 New Footprint=SOT-23
Change Physical Footprint: Designator=Q7 Old Footprint=SOT-23 New Footprint=SOT-23
Change Physical Footprint: Designator=Q8 Old Footprint=SOT-23 New Footprint=SOT-23
Change Physical Footprint: Designator=Q9 Old Footprint=SOT-23 New Footprint=SOT-23
Change Physical Footprint: Designator=Q10 Old Footprint=SOT-23 New Footprint=SOT-23
Change Physical Footprint: Designator=Q11 Old Footprint=SOT-23 New Footprint=SOT-23
Change Physical Footprint: Designator=Q12 Old Footprint=SOT-23 New Footprint=SOT-23
Change Physical Footprint: Designator=Q13 Old Footprint=SOT-23 New Footprint=SOT-23
Change Physical Footprint: Designator=Q14 Old Footprint=SOT-23 New Footprint=SOT-23
Change Physical Footprint: Designator=Q15 Old Footprint=SOT-23 New Footprint=SOT-23
Change Physical Footprint: Designator=Q16 Old Footprint=SOT-23 New Footprint=SOT-23
Change Physical Footprint: Designator=Q17 Old Footprint=SOT-23 New Footprint=SOT-23
Change Physical Footprint: Designator=Q18 Old Footprint=SOT-23 New Footprint=SOT-23
Change Physical Footprint: Designator=Q19 Old Footprint=SOT-23 New Footprint=SOT-23
Change Physical Footprint: Designator=Q20 Old Footprint=SOT-23 New Footprint=SOT-23
Change Physical Footprint: Designator=Q21 Old Footprint=SOT-23 New Footprint=SOT-23
Change Physical Footprint: Designator=Q22 Old Footprint=SOT-23 New Footprint=SOT-23
Change Physical Footprint: Designator=Q23 Old Footprint=SOT-23 New Footprint=SOT-23
Change Physical Footprint: Designator=Q24 Old Footprint=SOT-23 New Footprint=SOT-23
Change Physical Footprint: Designator=Q25 Old Footprint=SOT-23 New Footprint=SOT-23
Change Physical Footprint: Designator=Q26 Old Footprint=SOT-23 New Footprint=SOT-23
Change Physical Footprint: Designator=Q27 Old Footprint=SOT-23 New Footprint=SOT-23
Change Physical Footprint: Designator=Q28 Old Footprint=SOT-23 New Footprint=SOT-23
Change Physical Footprint: Designator=Q29 Old Footprint=SOT-23 New Footprint=SOT-23
Change Physical Footprint: Designator=Q30 Old Footprint=SOT-23 New Footprint=SOT-23
Change Physical Footprint: Designator=Q31 Old Footprint=SOT-23 New Footprint=SOT-23
Change Physical Footprint: Designator=Q32 Old Footprint=SOT-23 New Footprint=SOT-23
Change Physical Footprint: Designator=Q33 Old Footprint=SOT-23 New Footprint=SOT-23
Change Physical Footprint: Designator=Q34 Old Footprint=SOT-23 New Footprint=SOT-23
Change Physical Footprint: Designator=Q35 Old Footprint=SOT-23 New Footprint=SOT-23
Change Physical Footprint: Designator=Q36 Old Footprint=SOT-23 New Footprint=SOT-23
Change Physical Footprint: Designator=Q37 Old Footprint=SOT-23 New Footprint=SOT-23
Change Physical Footprint: Designator=Q38 Old Footprint=SOT-23 New Footprint=SOT-23
Change Physical Footprint: Designator=Q39 Old Footprint=SOT-23 New Footprint=SOT-23
Change Physical Footprint: Designator=Q40 Old Footprint=SOT-23 New Footprint=SOT-23
Change Physical Footprint: Designator=Q41 Old Footprint=SOT-23 New Footprint=SOT-23
Change Physical Footprint: Designator=Q42 Old Footprint=SOT-23 New Footprint=SOT-23
Change Physical Footprint: Designator=Q43 Old Footprint=SOT-23 New Footprint=SOT-23
Change Physical Footprint: Designator=Q44 Old Footprint=SOT-23 New Footprint=SOT-23
Change Physical Footprint: Designator=Q45 Old Footprint=SOT-23 New Footprint=SOT-23
Change Physical Footprint: Designator=Q46 Old Footprint=SOT-23 New Footprint=SOT-23
Change Physical Footprint: Designator=Q47 Old Footprint=SOT-23 New Footprint=SOT-23
Change Physical Footprint: Designator=Q48 Old Footprint=SOT-23 New Footprint=SOT-23
Change Physical Footprint: Designator=R1 Old Footprint=RES_0603 New Footprint=RES_0603
Change Physical Footprint: Designator=R2 Old Footprint=RES_0603 New Footprint=RES_0603
Change Physical Footprint: Designator=R3 Old Footprint=RES_0603 New Footprint=RES_0603
Change Physical Footprint: Designator=R4 Old Footprint=RES_0603 New Footprint=RES_0603
Change Physical Footprint: Designator=R5 Old Footprint=RES_0603 New Footprint=RES_0603
Change Physical Footprint: Designator=R6 Old Footprint=RES_2512 New Footprint=RES_2512
Change Physical Footprint: Designator=R7 Old Footprint=RES_2512 New Footprint=RES_2512
Change Physical Footprint: Designator=R8 Old Footprint=RES_0603 New Footprint=RES_0603
Change Physical Footprint: Designator=R9 Old Footprint=RES_0603 New Footprint=RES_0603
Change Physical Footprint: Designator=R10 Old Footprint=RES_0603 New Footprint=RES_0603
Change Physical Footprint: Designator=R11 Old Footprint=RES_0603 New Footprint=RES_0603
Change Physical Footprint: Designator=R12 Old Footprint=RES_0603 New Footprint=RES_0603
Change Physical Footprint: Designator=R13 Old Footprint=RES_2512 New Footprint=RES_2512
Change Physical Footprint: Designator=R14 Old Footprint=RES_2512 New Footprint=RES_2512
Change Physical Footprint: Designator=R15 Old Footprint=RES_0603 New Footprint=RES_0603
Change Physical Footprint: Designator=R16 Old Footprint=RES_0603 New Footprint=RES_0603
Change Physical Footprint: Designator=R17 Old Footprint=RES_0603 New Footprint=RES_0603
Change Physical Footprint: Designator=R18 Old Footprint=RES_0603 New Footprint=RES_0603
Change Physical Footprint: Designator=R19 Old Footprint=RES_0603 New Footprint=RES_0603
Change Physical Footprint: Designator=R20 Old Footprint=RES_2512 New Footprint=RES_2512
Change Physical Footprint: Designator=R21 Old Footprint=RES_2512 New Footprint=RES_2512
Change Physical Footprint: Designator=R22 Old Footprint=RES_0603 New Footprint=RES_0603
Change Physical Footprint: Designator=R23 Old Footprint=RES_0603 New Footprint=RES_0603
Change Physical Footprint: Designator=R24 Old Footprint=RES_0603 New Footprint=RES_0603
Change Physical Footprint: Designator=R25 Old Footprint=RES_0603 New Footprint=RES_0603
Change Physical Footprint: Designator=R26 Old Footprint=RES_0603 New Footprint=RES_0603
Change Physical Footprint: Designator=R27 Old Footprint=RES_2512 New Footprint=RES_2512
Change Physical Footprint: Designator=R28 Old Footprint=RES_2512 New Footprint=RES_2512
Change Physical Footprint: Designator=R29 Old Footprint=RES_0603 New Footprint=RES_0603
Change Physical Footprint: Designator=R30 Old Footprint=RES_0603 New Footprint=RES_0603
Change Physical Footprint: Designator=R31 Old Footprint=RES_0603 New Footprint=RES_0603
Change Physical Footprint: Designator=R32 Old Footprint=RES_0603 New Footprint=RES_0603
Change Physical Footprint: Designator=R33 Old Footprint=RES_0603 New Footprint=RES_0603
Change Physical Footprint: Designator=R34 Old Footprint=RES_0603 New Footprint=RES_0603
Change Physical Footprint: Designator=R35 Old Footprint=RES_2512 New Footprint=RES_2512
Change Physical Footprint: Designator=R36 Old Footprint=RES_2512 New Footprint=RES_2512
Change Physical Footprint: Designator=R37 Old Footprint=RES_0603 New Footprint=RES_0603
Change Physical Footprint: Designator=R38 Old Footprint=RES_0603 New Footprint=RES_0603
Change Physical Footprint: Designator=R39 Old Footprint=RES_0603 New Footprint=RES_0603
Change Physical Footprint: Designator=R40 Old Footprint=RES_0603 New Footprint=RES_0603
Change Physical Footprint: Designator=R41 Old Footprint=RES_0603 New Footprint=RES_0603
Change Physical Footprint: Designator=R42 Old Footprint=RES_2512 New Footprint=RES_2512
Change Physical Footprint: Designator=R43 Old Footprint=RES_2512 New Footprint=RES_2512
Change Physical Footprint: Designator=R44 Old Footprint=RES_0603 New Footprint=RES_0603
Change Physical Footprint: Designator=R45 Old Footprint=RES_0603 New Footprint=RES_0603
Change Physical Footprint: Designator=R46 Old Footprint=RES_0603 New Footprint=RES_0603
Change Physical Footprint: Designator=R47 Old Footprint=RES_0603 New Footprint=RES_0603
Change Physical Footprint: Designator=R48 Old Footprint=RES_0603 New Footprint=RES_0603
Change Physical Footprint: Designator=R49 Old Footprint=RES_2512 New Footprint=RES_2512
Change Physical Footprint: Designator=R50 Old Footprint=RES_2512 New Footprint=RES_2512
Change Physical Footprint: Designator=R51 Old Footprint=RES_0603 New Footprint=RES_0603
Change Physical Footprint: Designator=R52 Old Footprint=RES_0603 New Footprint=RES_0603
Change Physical Footprint: Designator=R53 Old Footprint=RES_0603 New Footprint=RES_0603
Change Physical Footprint: Designator=R54 Old Footprint=RES_0603 New Footprint=RES_0603
Change Physical Footprint: Designator=R55 Old Footprint=RES_0603 New Footprint=RES_0603
Change Physical Footprint: Designator=R56 Old Footprint=RES_2512 New Footprint=RES_2512
Change Physical Footprint: Designator=R57 Old Footprint=RES_2512 New Footprint=RES_2512
Change Physical Footprint: Designator=R58 Old Footprint=RES_0603 New Footprint=RES_0603
Change Physical Footprint: Designator=R59 Old Footprint=RES_0603 New Footprint=RES_0603
Change Physical Footprint: Designator=R60 Old Footprint=RES_0603 New Footprint=RES_0603
Change Physical Footprint: Designator=R61 Old Footprint=RES_0603 New Footprint=RES_0603
Change Physical Footprint: Designator=R62 Old Footprint=RES_0603 New Footprint=RES_0603
Change Physical Footprint: Designator=R63 Old Footprint=RES_0603 New Footprint=RES_0603
Change Physical Footprint: Designator=R64 Old Footprint=RES_0603 New Footprint=RES_0603
Change Physical Footprint: Designator=R65 Old Footprint=RES_0603 New Footprint=RES_0603
Change Physical Footprint: Designator=R66 Old Footprint=RES_0603 New Footprint=RES_0603
Change Physical Footprint: Designator=R67 Old Footprint=RES_2512 New Footprint=RES_2512
Change Physical Footprint: Designator=R68 Old Footprint=RES_0603 New Footprint=RES_0603
Change Physical Footprint: Designator=R69 Old Footprint=RES_2512 New Footprint=RES_2512
Change Physical Footprint: Designator=R70 Old Footprint=RES_0603 New Footprint=RES_0603
Change Physical Footprint: Designator=R71 Old Footprint=RES_0603 New Footprint=RES_0603
Change Physical Footprint: Designator=R72 Old Footprint=RES_0603 New Footprint=RES_0603
Change Physical Footprint: Designator=R73 Old Footprint=RES_0603 New Footprint=RES_0603
Change Physical Footprint: Designator=R74 Old Footprint=RES_0603 New Footprint=RES_0603
Change Physical Footprint: Designator=R75 Old Footprint=RES_0603 New Footprint=RES_0603
Change Physical Footprint: Designator=R76 Old Footprint=RES_0603 New Footprint=RES_0603
Change Physical Footprint: Designator=R77 Old Footprint=RES_0603 New Footprint=RES_0603
Change Physical Footprint: Designator=R78 Old Footprint=RES_0603 New Footprint=RES_0603
Change Physical Footprint: Designator=R79 Old Footprint=RES_2512 New Footprint=RES_2512
Change Physical Footprint: Designator=R80 Old Footprint=RES_2512 New Footprint=RES_2512
Change Physical Footprint: Designator=R81 Old Footprint=RES_1206 New Footprint=RES_1206
Change Physical Footprint: Designator=R82 Old Footprint=RES_0603 New Footprint=RES_0603
Change Physical Footprint: Designator=R83 Old Footprint=RES_0603 New Footprint=RES_0603
Change Physical Footprint: Designator=R84 Old Footprint=RES_0603 New Footprint=RES_0603
Change Physical Footprint: Designator=R85 Old Footprint=RES_0603 New Footprint=RES_0603
Change Physical Footprint: Designator=R86 Old Footprint=RES_1206 New Footprint=RES_1206
Change Physical Footprint: Designator=R87 Old Footprint=RES_0603 New Footprint=RES_0603
Change Physical Footprint: Designator=R88 Old Footprint=RES_0603 New Footprint=RES_0603
Change Physical Footprint: Designator=R89 Old Footprint=RES_0603 New Footprint=RES_0603
Change Physical Footprint: Designator=R90 Old Footprint=RES_2512 New Footprint=RES_2512
Change Physical Footprint: Designator=R91 Old Footprint=RES_2512 New Footprint=RES_2512
Change Physical Footprint: Designator=R92 Old Footprint=RES_0603 New Footprint=RES_0603
Change Physical Footprint: Designator=R93 Old Footprint=RES_0603 New Footprint=RES_0603
Change Physical Footprint: Designator=R94 Old Footprint=RES_0603 New Footprint=RES_0603
Change Physical Footprint: Designator=R95 Old Footprint=RES_0603 New Footprint=RES_0603
Change Physical Footprint: Designator=R96 Old Footprint=RES_0603 New Footprint=RES_0603
Change Physical Footprint: Designator=R97 Old Footprint=RES_0603 New Footprint=RES_0603
Change Physical Footprint: Designator=R98 Old Footprint=RES_0603 New Footprint=RES_0603
Change Physical Footprint: Designator=R99 Old Footprint=RES_0603 New Footprint=RES_0603
Change Physical Footprint: Designator=R100 Old Footprint=RES_0603 New Footprint=RES_0603
Change Physical Footprint: Designator=R101 Old Footprint=RES_2512 New Footprint=RES_2512
Change Physical Footprint: Designator=R102 Old Footprint=RES_0603 New Footprint=RES_0603
Change Physical Footprint: Designator=R103 Old Footprint=RES_0603 New Footprint=RES_0603
Change Physical Footprint: Designator=R104 Old Footprint=RES_0603 New Footprint=RES_0603
Change Physical Footprint: Designator=R105 Old Footprint=RES_0603 New Footprint=RES_0603
Change Physical Footprint: Designator=R106 Old Footprint=RES_2512 New Footprint=RES_2512
Change Physical Footprint: Designator=R107 Old Footprint=RES_0603 New Footprint=RES_0603
Change Physical Footprint: Designator=R108 Old Footprint=RES_0603 New Footprint=RES_0603
Change Physical Footprint: Designator=R109 Old Footprint=RES_0603 New Footprint=RES_0603
Change Physical Footprint: Designator=R110 Old Footprint=RES_0603 New Footprint=RES_0603
Change Physical Footprint: Designator=R111 Old Footprint=RES_0603 New Footprint=RES_0603
Change Physical Footprint: Designator=R112 Old Footprint=RES_0603 New Footprint=RES_0603
Change Physical Footprint: Designator=R113 Old Footprint=RES_0603 New Footprint=RES_0603
Change Physical Footprint: Designator=R114 Old Footprint=RES_0603 New Footprint=RES_0603
Change Physical Footprint: Designator=R115 Old Footprint=RES_0603 New Footprint=RES_0603
Change Physical Footprint: Designator=R116 Old Footprint=RES_0603 New Footprint=RES_0603
Change Physical Footprint: Designator=R117 Old Footprint=RES_0603 New Footprint=RES_0603
Change Physical Footprint: Designator=R118 Old Footprint=RES_2512 New Footprint=RES_2512
Change Physical Footprint: Designator=R119 Old Footprint=RES_0603 New Footprint=RES_0603
Change Physical Footprint: Designator=R120 Old Footprint=RES_2512 New Footprint=RES_2512
Change Physical Footprint: Designator=R121 Old Footprint=RES_0603 New Footprint=RES_0603
Change Physical Footprint: Designator=R122 Old Footprint=RES_0603 New Footprint=RES_0603
Change Physical Footprint: Designator=R123 Old Footprint=RES_0603 New Footprint=RES_0603
Change Physical Footprint: Designator=R124 Old Footprint=RES_0603 New Footprint=RES_0603
Change Physical Footprint: Designator=R125 Old Footprint=RES_0603 New Footprint=RES_0603
Change Physical Footprint: Designator=R126 Old Footprint=RES_0603 New Footprint=RES_0603
Change Physical Footprint: Designator=R127 Old Footprint=RES_2512 New Footprint=RES_2512
Change Physical Footprint: Designator=R128 Old Footprint=RES_2512 New Footprint=RES_2512
Change Physical Footprint: Designator=R129 Old Footprint=RES_0603 New Footprint=RES_0603
Change Physical Footprint: Designator=R130 Old Footprint=RES_0603 New Footprint=RES_0603
Change Physical Footprint: Designator=R131 Old Footprint=RES_0603 New Footprint=RES_0603
Change Physical Footprint: Designator=R132 Old Footprint=RES_0603 New Footprint=RES_0603
Change Physical Footprint: Designator=R133 Old Footprint=RES_0603 New Footprint=RES_0603
Change Physical Footprint: Designator=R134 Old Footprint=RES_2512 New Footprint=RES_2512
Change Physical Footprint: Designator=R135 Old Footprint=RES_2512 New Footprint=RES_2512
Change Physical Footprint: Designator=R136 Old Footprint=RES_0603 New Footprint=RES_0603
Change Physical Footprint: Designator=R137 Old Footprint=RES_0603 New Footprint=RES_0603
Change Physical Footprint: Designator=R138 Old Footprint=RES_0603 New Footprint=RES_0603
Change Physical Footprint: Designator=R139 Old Footprint=RES_0603 New Footprint=RES_0603
Change Physical Footprint: Designator=R140 Old Footprint=RES_0603 New Footprint=RES_0603
Change Physical Footprint: Designator=R141 Old Footprint=RES_0603 New Footprint=RES_0603
Change Physical Footprint: Designator=R142 Old Footprint=RES_0603 New Footprint=RES_0603
Change Physical Footprint: Designator=R143 Old Footprint=RES_0603 New Footprint=RES_0603
Change Physical Footprint: Designator=R144 Old Footprint=RES_0603 New Footprint=RES_0603
Change Physical Footprint: Designator=R145 Old Footprint=RES_0603 New Footprint=RES_0603
Change Physical Footprint: Designator=R146 Old Footprint=RES_0603 New Footprint=RES_0603
Change Physical Footprint: Designator=R147 Old Footprint=RES_0603 New Footprint=RES_0603
Change Physical Footprint: Designator=R148 Old Footprint=RES_0603 New Footprint=RES_0603
Change Physical Footprint: Designator=R149 Old Footprint=RES_2512 New Footprint=RES_2512
Change Physical Footprint: Designator=R150 Old Footprint=RES_2512 New Footprint=RES_2512
Change Physical Footprint: Designator=R151 Old Footprint=RES_0603 New Footprint=RES_0603
Change Physical Footprint: Designator=Thermistor Old Footprint=M80-5303442 New Footprint=M80-5303442
