Change Component Designator: Old Designator=F? New Designator=F9
Change Component Designator: Old Designator=F? New Designator=F19
Change Component Designator: Old Designator=F? New Designator=F20
Change Component Designator: Old Designator=F? New Designator=F21
Change Component Designator: Old Designator=F? New Designator=F22
Change Component Designator: Old Designator=F? New Designator=F23
Change Component Designator: Old Designator=F? New Designator=F24
Change Component Designator: Old Designator=F? New Designator=F25
Change Component Designator: Old Designator=F? New Designator=F26
Change Component Designator: Old Designator=F? New Designator=F27
Change Component Designator: Old Designator=F? New Designator=F28
Change Component Designator: Old Designator=F? New Designator=F29
Change Component Designator: Old Designator=F? New Designator=F30
Change Component Designator: Old Designator=F? New Designator=F31
Change Component Designator: Old Designator=F? New Designator=F32
Change Component Designator: Old Designator=F? New Designator=F33
Change Component Designator: Old Designator=F? New Designator=F34
Change Component Designator: Old Designator=F? New Designator=F35
Change Component Designator: Old Designator=F? New Designator=F36
Change Component Designator: Old Designator=F? New Designator=F37
Change Component Designator: Old Designator=F? New Designator=F38
Change Component Designator: Old Designator=F? New Designator=F39
Change Component Designator: Old Designator=F? New Designator=F40
Change Component Designator: Old Designator=F? New Designator=F41
Change Component Designator: Old Designator=F? New Designator=F42
Change Component Designator: Old Designator=F? New Designator=F43
Change Component Designator: Old Designator=F? New Designator=F44
Change Component Designator: Old Designator=F? New Designator=F45
Change Component Designator: Old Designator=F? New Designator=F46
Change Component Designator: Old Designator=F? New Designator=F47
Change Component Designator: Old Designator=F? New Designator=F48
Change Component Designator: Old Designator=F? New Designator=F49
